e85/Lab4/lab4_jf/waves/adventure.vcd
$version Generated by VerilatedVcd $end
$timescale 1ps $end
 $scope module $rootio $end
 $upscope $end
 $scope module testbench $end
  $var wire 32 6 NUM_TEST_VECTORS [31:0] $end
  $var wire 1 5 clk $end
  $var wire 1 # reset $end
  $var wire 1 $ N $end
  $var wire 1 % S $end
  $var wire 1 & E $end
  $var wire 1 ' W $end
  $var wire 1 - WIN $end
  $var wire 1 . DIE $end
  $var wire 2 ( expected [1:0] $end
  $var wire 32 ) vectornum [31:0] $end
  $var wire 32 * errors [31:0] $end
  $var wire 7 + vec [6:0] $end
  $scope module dut $end
   $var wire 1 $ N $end
   $var wire 1 % S $end
   $var wire 1 & E $end
   $var wire 1 ' W $end
   $var wire 1 5 clk $end
   $var wire 1 # reset $end
   $var wire 1 - WIN $end
   $var wire 1 . DIE $end
   $var wire 1 2 hasSword $end
   $var wire 1 / inStash $end
   $scope module room $end
    $var wire 1 $ N $end
    $var wire 1 % S $end
    $var wire 1 & E $end
    $var wire 1 ' W $end
    $var wire 1 5 clk $end
    $var wire 1 # reset $end
    $var wire 1 2 hasSword $end
    $var wire 1 / inStash $end
    $var wire 1 - WIN $end
    $var wire 1 . DIE $end
    $var wire 3 3 currentState [2:0] $end
    $var wire 3 0 nextState [2:0] $end
   $upscope $end
   $scope module sword $end
    $var wire 1 / inStash $end
    $var wire 1 5 clk $end
    $var wire 1 # reset $end
    $var wire 1 2 hasSword $end
    $var wire 1 4 currentState $end
    $var wire 1 1 nextState $end
   $upscope $end
  $upscope $end
  $scope module unnamedblk1 $end
   $var wire 32 , i [31:0] $end
  $upscope $end
 $upscope $end
$enddefinitions $end


#0
1#
0$
0%
0&
0'
b00 (
b00000000000000000000000000000000 )
b00000000000000000000000000000000 *
b0000000 +
b00000000000000000000000000000000 ,
0-
0.
0/
b000 0
01
02
b000 3
04
05
b00000000000000000000000000001110 6
#5
15
#10
05
#15
15
#20
05
#25
0#
15
#30
05
#35
1#
b1000000 +
15
#36
#40
b00000000000000000000000000000001 )
b00000000000000000000000000000001 ,
05
#45
0#
1&
b0001000 +
b001 0
b001 3
15
#46
#50
b00000000000000000000000000000010 )
b00000000000000000000000000000010 ,
05
#55
1%
0&
b0010000 +
b010 0
b010 3
15
#56
#60
b00000000000000000000000000000011 )
b00000000000000000000000000000011 ,
05
#65
0%
1'
b0000100 +
1/
b011 0
11
b011 3
15
#66
#70
b00000000000000000000000000000100 )
b00000000000000000000000000000100 ,
05
#75
1&
0'
b0001000 +
0/
b100 0
12
b010 3
14
15
#76
#80
b00000000000000000000000000000101 )
b00000000000000000000000000000101 ,
05
#85
b110 0
b100 3
15
#86
#90
b00000000000000000000000000000110 )
b00000000000000000000000000000110 ,
05
#95
b10 (
b0001010 +
1-
b110 3
15
#96
#100
b00000000000000000000000000000111 )
b00000000000000000000000000000111 ,
05
#105
0&
b0000010 +
15
#106
#110
b00000000000000000000000000001000 )
b00000000000000000000000000001000 ,
05
#115
1#
b00 (
b1000000 +
0-
b000 0
01
02
b000 3
04
15
#116
#120
b00000000000000000000000000001001 )
b00000000000000000000000000001001 ,
05
#125
0#
1&
b0001000 +
b001 0
b001 3
15
#126
#130
b00000000000000000000000000001010 )
b00000000000000000000000000001010 ,
05
#135
1%
0&
b0010000 +
b010 0
b010 3
15
#136
#140
b00000000000000000000000000001011 )
b00000000000000000000000000001011 ,
05
#145
0%
1&
b0001000 +
b101 0
b100 3
15
#146
#150
b00000000000000000000000000001100 )
b00000000000000000000000000001100 ,
05
#155
0&
b01 (
b0000001 +
1.
b101 3
15
#156
#160
b00000000000000000000000000001101 )
b00000000000000000000000000001101 ,
05
#165
15
#166
#170
b00000000000000000000000000001110 )
b00000000000000000000000000001110 ,
05
