e85/Lab2/lab2_jf/waves/fulladder.vcd
$version Generated by VerilatedVcd $end
$timescale 1ps $end
 $scope module TOP $end
  $scope module testbench $end
   $var wire 1 ( clk $end
   $var wire 1 ) reset $end
   $var wire 1 # a $end
   $var wire 1 $ b $end
   $var wire 1 % cin $end
   $var wire 1 * s $end
   $var wire 1 + cout $end
   $var wire 1 & sexpected $end
   $var wire 1 ' coutexpected $end
   $var wire 32 , vectornum [31:0] $end
   $var wire 32 - errors [31:0] $end
   $scope module dut $end
    $var wire 1 # a $end
    $var wire 1 $ b $end
    $var wire 1 % cin $end
    $var wire 1 * sum $end
    $var wire 1 + cout $end
   $upscope $end
   $scope module unnamedblk1 $end
    $var wire 32 . i [31:0] $end
   $upscope $end
  $upscope $end
 $upscope $end
$enddefinitions $end


#0
0#
0$
0%
0&
0'
1(
1)
0*
0+
b00000000000000000000000000000000 ,
b00000000000000000000000000000000 -
b00000000000000000010011100010001 .
#5
0(
#10
1(
#11
#15
0(
#20
1(
#21
#22
0)
#25
0(
b00000000000000000000000000000001 ,
#30
1(
#31
1%
1&
1*
#35
0(
b00000000000000000000000000000010 ,
#40
1(
#41
1$
0%
#45
0(
b00000000000000000000000000000011 ,
#50
1(
#51
1%
0&
1'
0*
1+
#55
0(
b00000000000000000000000000000100 ,
#60
1(
#61
1#
0$
0%
1&
0'
1*
0+
#65
0(
b00000000000000000000000000000101 ,
#70
1(
#71
1%
0&
1'
0*
1+
#75
0(
b00000000000000000000000000000110 ,
#80
1(
#81
1$
0%
#85
0(
b00000000000000000000000000000111 ,
#90
1(
#91
1%
1&
1*
#95
0(
b00000000000000000000000000001000 ,
